[api-updater (non-obsolete-error-filter)] 25/4/2564 11:09:48 : Starting C:/Program Files/Unity/Hub/Editor/2020.3.4f1/Editor/Data/Tools/ScriptUpdater/APIUpdater.NonObsoleteApiUpdaterDetector.exe
[api-updater (non-obsolete-error-filter)] 
----------------------------------
jit/startup time      : 923.8694ms
moved types parse time: 69ms
candidates parse time : 1ms
C# parse time         : 737ms
candidates check time : 37ms
console write time    : 1ms

[api-updater (non-obsolete-error-filter)] 25/4/2564 11:11:03 : Starting C:/Program Files/Unity/Hub/Editor/2020.3.4f1/Editor/Data/Tools/ScriptUpdater/APIUpdater.NonObsoleteApiUpdaterDetector.exe
[api-updater (non-obsolete-error-filter)] 
----------------------------------
jit/startup time      : 93.6744ms
moved types parse time: 68ms
candidates parse time : 1ms
C# parse time         : 242ms
candidates check time : 33ms
console write time    : 0ms

[api-updater (non-obsolete-error-filter)] 25/4/2564 11:11:14 : Starting C:/Program Files/Unity/Hub/Editor/2020.3.4f1/Editor/Data/Tools/ScriptUpdater/APIUpdater.NonObsoleteApiUpdaterDetector.exe
[api-updater (non-obsolete-error-filter)] 
----------------------------------
jit/startup time      : 85.0699ms
moved types parse time: 78ms
candidates parse time : 1ms
C# parse time         : 246ms
candidates check time : 36ms
console write time    : 0ms

[api-updater (non-obsolete-error-filter)] 25/4/2564 11:11:30 : Starting C:/Program Files/Unity/Hub/Editor/2020.3.4f1/Editor/Data/Tools/ScriptUpdater/APIUpdater.NonObsoleteApiUpdaterDetector.exe
[api-updater (non-obsolete-error-filter)] 
----------------------------------
jit/startup time      : 126.7537ms
moved types parse time: 87ms
candidates parse time : 2ms
C# parse time         : 302ms
candidates check time : 44ms
console write time    : 0ms

[api-updater (non-obsolete-error-filter)] 25/4/2564 11:11:39 : Starting C:/Program Files/Unity/Hub/Editor/2020.3.4f1/Editor/Data/Tools/ScriptUpdater/APIUpdater.NonObsoleteApiUpdaterDetector.exe
[api-updater (non-obsolete-error-filter)] 
----------------------------------
jit/startup time      : 138.082ms
moved types parse time: 103ms
candidates parse time : 2ms
C# parse time         : 347ms
candidates check time : 62ms
console write time    : 1ms

[api-updater (non-obsolete-error-filter)] 1/5/2564 4:17:01 : Starting C:/Program Files/Unity/Hub/Editor/2020.3.4f1/Editor/Data/Tools/ScriptUpdater/APIUpdater.NonObsoleteApiUpdaterDetector.exe
[api-updater (non-obsolete-error-filter)] 
----------------------------------
jit/startup time      : 698.8305ms
moved types parse time: 57ms
candidates parse time : 1ms
C# parse time         : 277ms
candidates check time : 42ms
console write time    : 0ms

[api-updater (non-obsolete-error-filter)] 1/5/2564 15:20:56 : Starting C:/Program Files/Unity/Hub/Editor/2020.3.4f1/Editor/Data/Tools/ScriptUpdater/APIUpdater.NonObsoleteApiUpdaterDetector.exe
[api-updater (non-obsolete-error-filter)] 
----------------------------------
jit/startup time      : 523.7558ms
moved types parse time: 72ms
candidates parse time : 16ms
C# parse time         : 355ms
candidates check time : -1ms
console write time    : -1ms

[api-updater (non-obsolete-error-filter)] 2/5/2564 7:21:55 : Starting C:/Program Files/Unity/Hub/Editor/2020.3.4f1/Editor/Data/Tools/ScriptUpdater/APIUpdater.NonObsoleteApiUpdaterDetector.exe
[api-updater (non-obsolete-error-filter)] 
----------------------------------
jit/startup time      : 772.2447ms
moved types parse time: 73ms
candidates parse time : 1ms
C# parse time         : 272ms
candidates check time : 33ms
console write time    : 0ms

[api-updater (non-obsolete-error-filter)] 2/5/2564 14:55:37 : Starting C:/Program Files/Unity/Hub/Editor/2020.3.4f1/Editor/Data/Tools/ScriptUpdater/APIUpdater.NonObsoleteApiUpdaterDetector.exe
[api-updater (non-obsolete-error-filter)] Exception caught while loading types from C:\Users\wtnp\Final Project 3\Library\ScriptAssemblies\Unity.TextMeshPro.Editor.dll (some types may not be loaded)
	Exception of type 'System.Reflection.ReflectionTypeLoadException' was thrown.
	  at (wrapper managed-to-native) System.Reflection.Assembly.GetTypes(System.Reflection.Assembly,bool)
  at System.Reflection.Assembly.GetTypes () [0x00000] in <695d1cc93cca45069c528c15c9fdd749>:0 
  at APIUpdater.NonObsoleteApiUpdaterDetector.ExtraInfoParser+<LoadTypesWithMovedFromAttributeAsync>d__3.MoveNext () [0x000c8] in <68bff7873e0e4aa69a14dfc30bebbe3e>:0 
	Could not load file or assembly 'UnityEditor.CoreModule, Version=0.0.0.0, Culture=neutral, PublicKeyToken=null' or one of its dependencies.

[api-updater (non-obsolete-error-filter)] 
----------------------------------
jit/startup time      : 786.9911ms
moved types parse time: 78ms
candidates parse time : 2ms
C# parse time         : 350ms
candidates check time : 84ms
console write time    : 1ms

[api-updater (non-obsolete-error-filter)] 3/5/2564 14:35:43 : Starting C:/Program Files/Unity/Hub/Editor/2020.3.4f1/Editor/Data/Tools/ScriptUpdater/APIUpdater.NonObsoleteApiUpdaterDetector.exe
[api-updater (non-obsolete-error-filter)] 
----------------------------------
jit/startup time      : 901.8134ms
moved types parse time: 80ms
candidates parse time : 2ms
C# parse time         : 299ms
candidates check time : 44ms
console write time    : 1ms

[api-updater (non-obsolete-error-filter)] 10/5/2564 14:12:41 : Starting C:/Program Files/Unity/Hub/Editor/2020.3.4f1/Editor/Data/Tools/ScriptUpdater/APIUpdater.NonObsoleteApiUpdaterDetector.exe
[api-updater (non-obsolete-error-filter)] 
----------------------------------
jit/startup time      : 1158.6026ms
moved types parse time: 83ms
candidates parse time : 1ms
C# parse time         : 294ms
candidates check time : 44ms
console write time    : 0ms

