%YAML 1.1
%TAG !u! tag:unity3d.com,2011:
--- !u!1045 &1
EditorBuildSettings:
  m_ObjectHideFlags: 0
  serializedVersion: 2
  m_Scenes:
  - enabled: 1
    path: Assets/Scenes/Menu.unity
    guid: fe55275739fe7da42abde528563f4527
  - enabled: 1
    path: Assets/Scenes/Game.unity
    guid: 9fc0d4010bbf28b4594072e72b8655ab
  - enabled: 1
    path: Assets/Scenes/Level2.unity
    guid: 8003f9d951cd0dd44ab37ed8a1201807
  - enabled: 0
    path: 
    guid: 00000000000000000000000000000000
  m_configObjects: {}
